[gd_scene load_steps=5 format=3 uid="uid://3iaafxhrioy0"]

[ext_resource type="Script" path="res://Client/PlayerController.cs" id="1_esfaw"]
[ext_resource type="Texture2D" uid="uid://c2msfga23reb8" path="res://Assets/Tilesets/character.png" id="1_hc3d5"]

[sub_resource type="Animation" id="Animation_62q5n"]
resource_name = "Idle"
loop_mode = 1
tracks/0/type = "value"
tracks/0/imported = false
tracks/0/enabled = true
tracks/0/path = NodePath(".:offset")
tracks/0/interp = 1
tracks/0/loop_wrap = true
tracks/0/keys = {
"times": PackedFloat32Array(0, 0.25, 0.5, 0.75, 1),
"transitions": PackedFloat32Array(1, 1, 1, 1, 1),
"update": 0,
"values": [Vector2(-1, -1), Vector2(0, 0), Vector2(1, -1), Vector2(0, 0), Vector2(-1, -1)]
}

[sub_resource type="AnimationLibrary" id="AnimationLibrary_1h3ik"]
_data = {
"Idle": SubResource("Animation_62q5n")
}

[node name="PlayerController" type="Node2D"]
script = ExtResource("1_esfaw")

[node name="SpriteContainer" type="Node2D" parent="."]
position = Vector2(0, 10)

[node name="CharacterSprite" type="Sprite2D" parent="SpriteContainer"]
position = Vector2(-20, -72)
texture = ExtResource("1_hc3d5")
centered = false
region_enabled = true
region_rect = Rect2(35, 7, 40, 85)

[node name="CameraRemote" type="RemoteTransform2D" parent="."]
position = Vector2(0, -16)
update_rotation = false
update_scale = false

[node name="AnimationPlayer" type="AnimationPlayer" parent="."]
root_node = NodePath("../SpriteContainer/CharacterSprite")
libraries = {
"": SubResource("AnimationLibrary_1h3ik")
}
