[gd_resource type="TileSet" load_steps=8 format=3 uid="uid://cau2325gjrxp8"]

[ext_resource type="Texture2D" uid="uid://6hmsifa4yjfi" path="res://Assets/Tilesets/terrain.png" id="1_4jfhb"]
[ext_resource type="Texture2D" uid="uid://bdyhpgefannjt" path="res://Assets/Tilesets/props.png" id="2_rnkad"]

[sub_resource type="TileSetAtlasSource" id="TileSetAtlasSource_y1fku"]
texture = ExtResource("1_4jfhb")
texture_region_size = Vector2i(32, 32)
9:0/0 = 0
9:0/0/physics_layer_0/linear_velocity = Vector2(0, 0)
9:0/0/physics_layer_0/angular_velocity = 0.0
11:0/0 = 0
11:0/0/physics_layer_0/linear_velocity = Vector2(0, 0)
11:0/0/physics_layer_0/angular_velocity = 0.0
14:0/0 = 0
14:0/0/physics_layer_0/linear_velocity = Vector2(0, 0)
14:0/0/physics_layer_0/angular_velocity = 0.0
16:0/0 = 0
16:0/0/physics_layer_0/linear_velocity = Vector2(0, 0)
16:0/0/physics_layer_0/angular_velocity = 0.0
17:0/0 = 0
17:0/0/y_sort_origin = -16
17:0/0/physics_layer_0/linear_velocity = Vector2(0, 0)
17:0/0/physics_layer_0/angular_velocity = 0.0
18:0/0 = 0
18:0/0/y_sort_origin = -16
18:0/0/terrain_set = 0
18:0/0/terrain = 0
18:0/0/physics_layer_0/linear_velocity = Vector2(0, 0)
18:0/0/physics_layer_0/angular_velocity = 0.0
18:0/0/terrains_peering_bit/right_side = 0
18:0/0/terrains_peering_bit/bottom_side = 0
18:0/0/terrains_peering_bit/bottom_left_corner = 0
18:0/0/terrains_peering_bit/left_side = 0
18:0/0/terrains_peering_bit/top_side = 0
18:0/0/terrains_peering_bit/top_right_corner = 0
19:0/0 = 0
19:0/0/y_sort_origin = -16
19:0/0/terrain_set = 0
19:0/0/terrain = 0
19:0/0/physics_layer_0/linear_velocity = Vector2(0, 0)
19:0/0/physics_layer_0/angular_velocity = 0.0
19:0/0/terrains_peering_bit/right_side = 0
19:0/0/terrains_peering_bit/bottom_right_corner = 0
19:0/0/terrains_peering_bit/bottom_side = 0
20:0/0 = 0
20:0/0/y_sort_origin = -16
20:0/0/terrain_set = 0
20:0/0/terrain = 0
20:0/0/physics_layer_0/linear_velocity = Vector2(0, 0)
20:0/0/physics_layer_0/angular_velocity = 0.0
20:0/0/terrains_peering_bit/right_side = 0
20:0/0/terrains_peering_bit/bottom_right_corner = 0
20:0/0/terrains_peering_bit/bottom_side = 0
20:0/0/terrains_peering_bit/bottom_left_corner = 0
20:0/0/terrains_peering_bit/left_side = 0
21:0/0 = 0
21:0/0/y_sort_origin = -16
21:0/0/terrain_set = 0
21:0/0/terrain = 0
21:0/0/physics_layer_0/linear_velocity = Vector2(0, 0)
21:0/0/physics_layer_0/angular_velocity = 0.0
21:0/0/terrains_peering_bit/bottom_side = 0
21:0/0/terrains_peering_bit/bottom_left_corner = 0
21:0/0/terrains_peering_bit/left_side = 0
22:0/0 = 0
22:0/0/y_sort_origin = -16
22:0/0/terrain_set = 0
22:0/0/terrain = 0
22:0/0/physics_layer_0/linear_velocity = Vector2(0, 0)
22:0/0/physics_layer_0/angular_velocity = 0.0
22:0/0/terrains_peering_bit/right_side = 0
22:0/0/terrains_peering_bit/bottom_right_corner = 0
22:0/0/terrains_peering_bit/bottom_side = 0
22:0/0/terrains_peering_bit/left_side = 0
22:0/0/terrains_peering_bit/top_left_corner = 0
22:0/0/terrains_peering_bit/top_side = 0
1:1/0 = 0
1:1/0/y_sort_origin = -16
1:1/0/terrain_set = 0
1:1/0/terrain = 2
1:1/0/physics_layer_0/linear_velocity = Vector2(0, 0)
1:1/0/physics_layer_0/angular_velocity = 0.0
1:1/0/terrains_peering_bit/right_side = 2
1:1/0/terrains_peering_bit/bottom_right_corner = 2
1:1/0/terrains_peering_bit/bottom_side = 2
2:1/0 = 0
2:1/0/y_sort_origin = -16
2:1/0/terrain_set = 0
2:1/0/terrain = 2
2:1/0/physics_layer_0/linear_velocity = Vector2(0, 0)
2:1/0/physics_layer_0/angular_velocity = 0.0
2:1/0/terrains_peering_bit/right_side = 2
2:1/0/terrains_peering_bit/bottom_right_corner = 2
2:1/0/terrains_peering_bit/bottom_side = 2
2:1/0/terrains_peering_bit/bottom_left_corner = 2
2:1/0/terrains_peering_bit/left_side = 2
3:1/0 = 0
3:1/0/y_sort_origin = -16
3:1/0/terrain_set = 0
3:1/0/terrain = 2
3:1/0/physics_layer_0/linear_velocity = Vector2(0, 0)
3:1/0/physics_layer_0/angular_velocity = 0.0
3:1/0/terrains_peering_bit/bottom_side = 2
3:1/0/terrains_peering_bit/bottom_left_corner = 2
3:1/0/terrains_peering_bit/left_side = 2
5:1/0 = 0
5:1/0/physics_layer_0/linear_velocity = Vector2(0, 0)
5:1/0/physics_layer_0/angular_velocity = 0.0
6:1/0 = 0
6:1/0/physics_layer_0/linear_velocity = Vector2(0, 0)
6:1/0/physics_layer_0/angular_velocity = 0.0
7:1/0 = 0
7:1/0/physics_layer_0/linear_velocity = Vector2(0, 0)
7:1/0/physics_layer_0/angular_velocity = 0.0
8:1/0 = 0
8:1/0/physics_layer_0/linear_velocity = Vector2(0, 0)
8:1/0/physics_layer_0/angular_velocity = 0.0
10:1/0 = 0
10:1/0/physics_layer_0/linear_velocity = Vector2(0, 0)
10:1/0/physics_layer_0/angular_velocity = 0.0
11:1/0 = 0
11:1/0/physics_layer_0/linear_velocity = Vector2(0, 0)
11:1/0/physics_layer_0/angular_velocity = 0.0
12:1/0 = 0
12:1/0/physics_layer_0/linear_velocity = Vector2(0, 0)
12:1/0/physics_layer_0/angular_velocity = 0.0
13:1/0 = 0
13:1/0/physics_layer_0/linear_velocity = Vector2(0, 0)
13:1/0/physics_layer_0/angular_velocity = 0.0
14:1/0 = 0
14:1/0/physics_layer_0/linear_velocity = Vector2(0, 0)
14:1/0/physics_layer_0/angular_velocity = 0.0
15:1/0 = 0
15:1/0/physics_layer_0/linear_velocity = Vector2(0, 0)
15:1/0/physics_layer_0/angular_velocity = 0.0
18:1/0 = 0
18:1/0/y_sort_origin = -16
18:1/0/terrain_set = 0
18:1/0/terrain = 0
18:1/0/physics_layer_0/linear_velocity = Vector2(0, 0)
18:1/0/physics_layer_0/angular_velocity = 0.0
18:1/0/terrains_peering_bit/right_side = 0
18:1/0/terrains_peering_bit/bottom_right_corner = 0
18:1/0/terrains_peering_bit/bottom_side = 0
19:1/0 = 0
19:1/0/y_sort_origin = -16
19:1/0/terrain_set = 0
19:1/0/terrain = 0
19:1/0/physics_layer_0/linear_velocity = Vector2(0, 0)
19:1/0/physics_layer_0/angular_velocity = 0.0
19:1/0/terrains_peering_bit/right_side = 0
19:1/0/terrains_peering_bit/bottom_right_corner = 0
19:1/0/terrains_peering_bit/bottom_side = 0
19:1/0/terrains_peering_bit/bottom_left_corner = 0
19:1/0/terrains_peering_bit/left_side = 0
19:1/0/terrains_peering_bit/top_side = 0
19:1/0/terrains_peering_bit/top_right_corner = 0
20:1/0 = 0
20:1/0/y_sort_origin = -16
20:1/0/terrain_set = 0
20:1/0/terrain = 0
20:1/0/physics_layer_0/linear_velocity = Vector2(0, 0)
20:1/0/physics_layer_0/angular_velocity = 0.0
20:1/0/terrains_peering_bit/right_side = 0
20:1/0/terrains_peering_bit/bottom_right_corner = 0
20:1/0/terrains_peering_bit/bottom_side = 0
20:1/0/terrains_peering_bit/bottom_left_corner = 0
20:1/0/terrains_peering_bit/left_side = 0
20:1/0/terrains_peering_bit/top_left_corner = 0
20:1/0/terrains_peering_bit/top_side = 0
20:1/0/terrains_peering_bit/top_right_corner = 0
21:1/0 = 0
21:1/0/y_sort_origin = -16
21:1/0/terrain_set = 0
21:1/0/terrain = 0
21:1/0/physics_layer_0/linear_velocity = Vector2(0, 0)
21:1/0/physics_layer_0/angular_velocity = 0.0
21:1/0/terrains_peering_bit/right_side = 0
21:1/0/terrains_peering_bit/bottom_right_corner = 0
21:1/0/terrains_peering_bit/bottom_side = 0
21:1/0/terrains_peering_bit/bottom_left_corner = 0
21:1/0/terrains_peering_bit/left_side = 0
21:1/0/terrains_peering_bit/top_left_corner = 0
21:1/0/terrains_peering_bit/top_side = 0
22:1/0 = 0
22:1/0/y_sort_origin = -16
22:1/0/terrain_set = 0
22:1/0/terrain = 0
22:1/0/physics_layer_0/linear_velocity = Vector2(0, 0)
22:1/0/physics_layer_0/angular_velocity = 0.0
22:1/0/terrains_peering_bit/bottom_side = 0
22:1/0/terrains_peering_bit/bottom_left_corner = 0
22:1/0/terrains_peering_bit/left_side = 0
0:2/0 = 0
0:2/0/y_sort_origin = -16
0:2/0/terrain_set = 0
0:2/0/terrain = 2
0:2/0/physics_layer_0/linear_velocity = Vector2(0, 0)
0:2/0/physics_layer_0/angular_velocity = 0.0
0:2/0/terrains_peering_bit/right_side = 2
0:2/0/terrains_peering_bit/bottom_right_corner = 2
0:2/0/terrains_peering_bit/bottom_side = 2
1:2/0 = 0
1:2/0/y_sort_origin = -16
1:2/0/terrain_set = 0
1:2/0/terrain = 2
1:2/0/physics_layer_0/linear_velocity = Vector2(0, 0)
1:2/0/physics_layer_0/angular_velocity = 0.0
1:2/0/terrains_peering_bit/right_side = 2
1:2/0/terrains_peering_bit/bottom_right_corner = 2
1:2/0/terrains_peering_bit/bottom_side = 2
1:2/0/terrains_peering_bit/bottom_left_corner = 2
1:2/0/terrains_peering_bit/left_side = 2
1:2/0/terrains_peering_bit/top_side = 2
1:2/0/terrains_peering_bit/top_right_corner = 2
2:2/0 = 0
2:2/0/y_sort_origin = -16
2:2/0/terrain_set = 0
2:2/0/terrain = 2
2:2/0/physics_layer_0/linear_velocity = Vector2(0, 0)
2:2/0/physics_layer_0/angular_velocity = 0.0
2:2/0/terrains_peering_bit/right_side = 2
2:2/0/terrains_peering_bit/bottom_right_corner = 2
2:2/0/terrains_peering_bit/bottom_side = 2
2:2/0/terrains_peering_bit/bottom_left_corner = 2
2:2/0/terrains_peering_bit/left_side = 2
2:2/0/terrains_peering_bit/top_left_corner = 2
2:2/0/terrains_peering_bit/top_side = 2
2:2/0/terrains_peering_bit/top_right_corner = 2
3:2/0 = 0
3:2/0/y_sort_origin = -16
3:2/0/terrain_set = 0
3:2/0/terrain = 2
3:2/0/physics_layer_0/linear_velocity = Vector2(0, 0)
3:2/0/physics_layer_0/angular_velocity = 0.0
3:2/0/terrains_peering_bit/right_side = 2
3:2/0/terrains_peering_bit/bottom_right_corner = 2
3:2/0/terrains_peering_bit/bottom_side = 2
3:2/0/terrains_peering_bit/bottom_left_corner = 2
3:2/0/terrains_peering_bit/left_side = 2
3:2/0/terrains_peering_bit/top_left_corner = 2
3:2/0/terrains_peering_bit/top_side = 2
4:2/0 = 0
4:2/0/y_sort_origin = -16
4:2/0/terrain_set = 0
4:2/0/terrain = 2
4:2/0/physics_layer_0/linear_velocity = Vector2(0, 0)
4:2/0/physics_layer_0/angular_velocity = 0.0
4:2/0/terrains_peering_bit/bottom_side = 2
4:2/0/terrains_peering_bit/bottom_left_corner = 2
4:2/0/terrains_peering_bit/left_side = 2
5:2/0 = 0
5:2/0/physics_layer_0/linear_velocity = Vector2(0, 0)
5:2/0/physics_layer_0/angular_velocity = 0.0
6:2/0 = 0
6:2/0/physics_layer_0/linear_velocity = Vector2(0, 0)
6:2/0/physics_layer_0/angular_velocity = 0.0
7:2/0 = 0
7:2/0/physics_layer_0/linear_velocity = Vector2(0, 0)
7:2/0/physics_layer_0/angular_velocity = 0.0
8:2/0 = 0
8:2/0/physics_layer_0/linear_velocity = Vector2(0, 0)
8:2/0/physics_layer_0/angular_velocity = 0.0
9:2/0 = 0
9:2/0/physics_layer_0/linear_velocity = Vector2(0, 0)
9:2/0/physics_layer_0/angular_velocity = 0.0
10:2/0 = 0
10:2/0/physics_layer_0/linear_velocity = Vector2(0, 0)
10:2/0/physics_layer_0/angular_velocity = 0.0
11:2/0 = 0
11:2/0/physics_layer_0/linear_velocity = Vector2(0, 0)
11:2/0/physics_layer_0/angular_velocity = 0.0
12:2/0 = 0
12:2/0/physics_layer_0/linear_velocity = Vector2(0, 0)
12:2/0/physics_layer_0/angular_velocity = 0.0
13:2/0 = 0
13:2/0/physics_layer_0/linear_velocity = Vector2(0, 0)
13:2/0/physics_layer_0/angular_velocity = 0.0
14:2/0 = 0
14:2/0/physics_layer_0/linear_velocity = Vector2(0, 0)
14:2/0/physics_layer_0/angular_velocity = 0.0
15:2/0 = 0
15:2/0/physics_layer_0/linear_velocity = Vector2(0, 0)
15:2/0/physics_layer_0/angular_velocity = 0.0
16:2/0 = 0
16:2/0/physics_layer_0/linear_velocity = Vector2(0, 0)
16:2/0/physics_layer_0/angular_velocity = 0.0
18:2/0 = 0
18:2/0/y_sort_origin = -16
18:2/0/terrain_set = 0
18:2/0/terrain = 0
18:2/0/physics_layer_0/linear_velocity = Vector2(0, 0)
18:2/0/physics_layer_0/angular_velocity = 0.0
18:2/0/terrains_peering_bit/right_side = 0
18:2/0/terrains_peering_bit/bottom_right_corner = 0
18:2/0/terrains_peering_bit/bottom_side = 0
18:2/0/terrains_peering_bit/top_side = 0
18:2/0/terrains_peering_bit/top_right_corner = 0
19:2/0 = 0
19:2/0/y_sort_origin = -16
19:2/0/terrain_set = 0
19:2/0/terrain = 0
19:2/0/physics_layer_0/linear_velocity = Vector2(0, 0)
19:2/0/physics_layer_0/angular_velocity = 0.0
19:2/0/terrains_peering_bit/right_side = 0
19:2/0/terrains_peering_bit/bottom_right_corner = 0
19:2/0/terrains_peering_bit/bottom_side = 0
19:2/0/terrains_peering_bit/bottom_left_corner = 0
19:2/0/terrains_peering_bit/left_side = 0
19:2/0/terrains_peering_bit/top_left_corner = 0
19:2/0/terrains_peering_bit/top_side = 0
19:2/0/terrains_peering_bit/top_right_corner = 0
20:2/0 = 0
20:2/0/y_sort_origin = -16
20:2/0/terrain_set = 0
20:2/0/terrain = 0
20:2/0/physics_layer_0/linear_velocity = Vector2(0, 0)
20:2/0/physics_layer_0/angular_velocity = 0.0
20:2/0/terrains_peering_bit/right_side = 0
20:2/0/terrains_peering_bit/bottom_right_corner = 0
20:2/0/terrains_peering_bit/bottom_side = 0
20:2/0/terrains_peering_bit/bottom_left_corner = 0
20:2/0/terrains_peering_bit/left_side = 0
20:2/0/terrains_peering_bit/top_left_corner = 0
20:2/0/terrains_peering_bit/top_side = 0
20:2/0/terrains_peering_bit/top_right_corner = 0
21:2/0 = 0
21:2/0/y_sort_origin = -16
21:2/0/terrain_set = 0
21:2/0/terrain = 0
21:2/0/physics_layer_0/linear_velocity = Vector2(0, 0)
21:2/0/physics_layer_0/angular_velocity = 0.0
21:2/0/terrains_peering_bit/right_side = 0
21:2/0/terrains_peering_bit/bottom_right_corner = 0
21:2/0/terrains_peering_bit/bottom_side = 0
21:2/0/terrains_peering_bit/bottom_left_corner = 0
21:2/0/terrains_peering_bit/left_side = 0
21:2/0/terrains_peering_bit/top_left_corner = 0
21:2/0/terrains_peering_bit/top_side = 0
21:2/0/terrains_peering_bit/top_right_corner = 0
22:2/0 = 0
22:2/0/y_sort_origin = -16
22:2/0/terrain_set = 0
22:2/0/terrain = 0
22:2/0/physics_layer_0/linear_velocity = Vector2(0, 0)
22:2/0/physics_layer_0/angular_velocity = 0.0
22:2/0/terrains_peering_bit/bottom_side = 0
22:2/0/terrains_peering_bit/bottom_left_corner = 0
22:2/0/terrains_peering_bit/left_side = 0
22:2/0/terrains_peering_bit/top_left_corner = 0
22:2/0/terrains_peering_bit/top_side = 0
0:3/0 = 0
0:3/0/y_sort_origin = -16
0:3/0/terrain_set = 0
0:3/0/terrain = 2
0:3/0/physics_layer_0/linear_velocity = Vector2(0, 0)
0:3/0/physics_layer_0/angular_velocity = 0.0
0:3/0/terrains_peering_bit/right_side = 2
0:3/0/terrains_peering_bit/bottom_right_corner = 2
0:3/0/terrains_peering_bit/bottom_side = 2
0:3/0/terrains_peering_bit/top_side = 2
0:3/0/terrains_peering_bit/top_right_corner = 2
1:3/0 = 0
1:3/0/y_sort_origin = -16
1:3/0/terrain_set = 0
1:3/0/terrain = 2
1:3/0/physics_layer_0/linear_velocity = Vector2(0, 0)
1:3/0/physics_layer_0/angular_velocity = 0.0
1:3/0/terrains_peering_bit/right_side = 2
1:3/0/terrains_peering_bit/bottom_right_corner = 2
1:3/0/terrains_peering_bit/bottom_side = 2
1:3/0/terrains_peering_bit/bottom_left_corner = 2
1:3/0/terrains_peering_bit/left_side = 2
1:3/0/terrains_peering_bit/top_left_corner = 2
1:3/0/terrains_peering_bit/top_side = 2
1:3/0/terrains_peering_bit/top_right_corner = 2
2:3/0 = 0
2:3/0/y_sort_origin = -16
2:3/0/terrain_set = 0
2:3/0/terrain = 2
2:3/0/physics_layer_0/linear_velocity = Vector2(0, 0)
2:3/0/physics_layer_0/angular_velocity = 0.0
2:3/0/terrains_peering_bit/right_side = 2
2:3/0/terrains_peering_bit/bottom_right_corner = 2
2:3/0/terrains_peering_bit/bottom_side = 2
2:3/0/terrains_peering_bit/bottom_left_corner = 2
2:3/0/terrains_peering_bit/left_side = 2
2:3/0/terrains_peering_bit/top_left_corner = 2
2:3/0/terrains_peering_bit/top_side = 2
2:3/0/terrains_peering_bit/top_right_corner = 2
3:3/0 = 0
3:3/0/y_sort_origin = -16
3:3/0/terrain_set = 0
3:3/0/terrain = 2
3:3/0/physics_layer_0/linear_velocity = Vector2(0, 0)
3:3/0/physics_layer_0/angular_velocity = 0.0
3:3/0/terrains_peering_bit/right_side = 2
3:3/0/terrains_peering_bit/bottom_right_corner = 2
3:3/0/terrains_peering_bit/bottom_side = 2
3:3/0/terrains_peering_bit/bottom_left_corner = 2
3:3/0/terrains_peering_bit/left_side = 2
3:3/0/terrains_peering_bit/top_left_corner = 2
3:3/0/terrains_peering_bit/top_side = 2
3:3/0/terrains_peering_bit/top_right_corner = 2
4:3/0 = 0
4:3/0/y_sort_origin = -16
4:3/0/terrain_set = 0
4:3/0/terrain = 2
4:3/0/physics_layer_0/linear_velocity = Vector2(0, 0)
4:3/0/physics_layer_0/angular_velocity = 0.0
4:3/0/terrains_peering_bit/bottom_side = 2
4:3/0/terrains_peering_bit/bottom_left_corner = 2
4:3/0/terrains_peering_bit/left_side = 2
4:3/0/terrains_peering_bit/top_left_corner = 2
4:3/0/terrains_peering_bit/top_side = 2
5:3/0 = 0
5:3/0/physics_layer_0/linear_velocity = Vector2(0, 0)
5:3/0/physics_layer_0/angular_velocity = 0.0
6:3/0 = 0
6:3/0/physics_layer_0/linear_velocity = Vector2(0, 0)
6:3/0/physics_layer_0/angular_velocity = 0.0
7:3/0 = 0
7:3/0/physics_layer_0/linear_velocity = Vector2(0, 0)
7:3/0/physics_layer_0/angular_velocity = 0.0
11:3/0 = 0
11:3/0/physics_layer_0/linear_velocity = Vector2(0, 0)
11:3/0/physics_layer_0/angular_velocity = 0.0
12:3/0 = 0
12:3/0/physics_layer_0/linear_velocity = Vector2(0, 0)
12:3/0/physics_layer_0/angular_velocity = 0.0
13:3/0 = 0
13:3/0/physics_layer_0/linear_velocity = Vector2(0, 0)
13:3/0/physics_layer_0/angular_velocity = 0.0
14:3/0 = 0
14:3/0/physics_layer_0/linear_velocity = Vector2(0, 0)
14:3/0/physics_layer_0/angular_velocity = 0.0
18:3/0 = 0
18:3/0/y_sort_origin = -16
18:3/0/terrain_set = 0
18:3/0/terrain = 0
18:3/0/physics_layer_0/linear_velocity = Vector2(0, 0)
18:3/0/physics_layer_0/angular_velocity = 0.0
18:3/0/terrains_peering_bit/right_side = 0
18:3/0/terrains_peering_bit/top_side = 0
18:3/0/terrains_peering_bit/top_right_corner = 0
19:3/0 = 0
19:3/0/y_sort_origin = -16
19:3/0/terrain_set = 0
19:3/0/terrain = 0
19:3/0/physics_layer_0/linear_velocity = Vector2(0, 0)
19:3/0/physics_layer_0/angular_velocity = 0.0
19:3/0/terrains_peering_bit/right_side = 0
19:3/0/terrains_peering_bit/bottom_right_corner = 0
19:3/0/terrains_peering_bit/bottom_side = 0
19:3/0/terrains_peering_bit/left_side = 0
19:3/0/terrains_peering_bit/top_left_corner = 0
19:3/0/terrains_peering_bit/top_side = 0
19:3/0/terrains_peering_bit/top_right_corner = 0
20:3/0 = 0
20:3/0/y_sort_origin = -16
20:3/0/terrain_set = 0
20:3/0/terrain = 0
20:3/0/physics_layer_0/linear_velocity = Vector2(0, 0)
20:3/0/physics_layer_0/angular_velocity = 0.0
20:3/0/terrains_peering_bit/right_side = 0
20:3/0/terrains_peering_bit/bottom_right_corner = 0
20:3/0/terrains_peering_bit/bottom_side = 0
20:3/0/terrains_peering_bit/bottom_left_corner = 0
20:3/0/terrains_peering_bit/left_side = 0
20:3/0/terrains_peering_bit/top_left_corner = 0
20:3/0/terrains_peering_bit/top_side = 0
20:3/0/terrains_peering_bit/top_right_corner = 0
21:3/0 = 0
21:3/0/y_sort_origin = -16
21:3/0/terrain_set = 0
21:3/0/terrain = 0
21:3/0/physics_layer_0/linear_velocity = Vector2(0, 0)
21:3/0/physics_layer_0/angular_velocity = 0.0
21:3/0/terrains_peering_bit/right_side = 0
21:3/0/terrains_peering_bit/bottom_side = 0
21:3/0/terrains_peering_bit/bottom_left_corner = 0
21:3/0/terrains_peering_bit/left_side = 0
21:3/0/terrains_peering_bit/top_left_corner = 0
21:3/0/terrains_peering_bit/top_side = 0
21:3/0/terrains_peering_bit/top_right_corner = 0
22:3/0 = 0
22:3/0/y_sort_origin = -16
22:3/0/terrain_set = 0
22:3/0/terrain = 0
22:3/0/physics_layer_0/linear_velocity = Vector2(0, 0)
22:3/0/physics_layer_0/angular_velocity = 0.0
22:3/0/terrains_peering_bit/left_side = 0
22:3/0/terrains_peering_bit/top_left_corner = 0
22:3/0/terrains_peering_bit/top_side = 0
0:4/0 = 0
0:4/0/y_sort_origin = -16
0:4/0/terrain_set = 0
0:4/0/terrain = 2
0:4/0/physics_layer_0/linear_velocity = Vector2(0, 0)
0:4/0/physics_layer_0/angular_velocity = 0.0
0:4/0/terrains_peering_bit/right_side = 2
0:4/0/terrains_peering_bit/bottom_right_corner = 2
0:4/0/terrains_peering_bit/bottom_side = 2
0:4/0/terrains_peering_bit/top_side = 2
0:4/0/terrains_peering_bit/top_right_corner = 2
1:4/0 = 0
1:4/0/y_sort_origin = -16
1:4/0/terrain_set = 0
1:4/0/terrain = 2
1:4/0/physics_layer_0/linear_velocity = Vector2(0, 0)
1:4/0/physics_layer_0/angular_velocity = 0.0
1:4/0/terrains_peering_bit/right_side = 2
1:4/0/terrains_peering_bit/bottom_right_corner = 2
1:4/0/terrains_peering_bit/bottom_side = 2
1:4/0/terrains_peering_bit/bottom_left_corner = 2
1:4/0/terrains_peering_bit/left_side = 2
1:4/0/terrains_peering_bit/top_left_corner = 2
1:4/0/terrains_peering_bit/top_side = 2
1:4/0/terrains_peering_bit/top_right_corner = 2
2:4/0 = 0
2:4/0/y_sort_origin = -16
2:4/0/terrain_set = 0
2:4/0/terrain = 2
2:4/0/physics_layer_0/linear_velocity = Vector2(0, 0)
2:4/0/physics_layer_0/angular_velocity = 0.0
2:4/0/terrains_peering_bit/right_side = 2
2:4/0/terrains_peering_bit/bottom_right_corner = 2
2:4/0/terrains_peering_bit/bottom_side = 2
2:4/0/terrains_peering_bit/bottom_left_corner = 2
2:4/0/terrains_peering_bit/left_side = 2
2:4/0/terrains_peering_bit/top_left_corner = 2
2:4/0/terrains_peering_bit/top_side = 2
2:4/0/terrains_peering_bit/top_right_corner = 2
3:4/0 = 0
3:4/0/y_sort_origin = -16
3:4/0/terrain_set = 0
3:4/0/terrain = 2
3:4/0/physics_layer_0/linear_velocity = Vector2(0, 0)
3:4/0/physics_layer_0/angular_velocity = 0.0
3:4/0/terrains_peering_bit/right_side = 2
3:4/0/terrains_peering_bit/bottom_right_corner = 2
3:4/0/terrains_peering_bit/bottom_side = 2
3:4/0/terrains_peering_bit/bottom_left_corner = 2
3:4/0/terrains_peering_bit/left_side = 2
3:4/0/terrains_peering_bit/top_left_corner = 2
3:4/0/terrains_peering_bit/top_side = 2
3:4/0/terrains_peering_bit/top_right_corner = 2
4:4/0 = 0
4:4/0/y_sort_origin = -16
4:4/0/terrain_set = 0
4:4/0/terrain = 2
4:4/0/physics_layer_0/linear_velocity = Vector2(0, 0)
4:4/0/physics_layer_0/angular_velocity = 0.0
4:4/0/terrains_peering_bit/bottom_side = 2
4:4/0/terrains_peering_bit/bottom_left_corner = 2
4:4/0/terrains_peering_bit/left_side = 2
4:4/0/terrains_peering_bit/top_left_corner = 2
4:4/0/terrains_peering_bit/top_side = 2
5:4/0 = 0
5:4/0/physics_layer_0/linear_velocity = Vector2(0, 0)
5:4/0/physics_layer_0/angular_velocity = 0.0
6:4/0 = 0
6:4/0/physics_layer_0/linear_velocity = Vector2(0, 0)
6:4/0/physics_layer_0/angular_velocity = 0.0
7:4/0 = 0
7:4/0/physics_layer_0/linear_velocity = Vector2(0, 0)
7:4/0/physics_layer_0/angular_velocity = 0.0
8:4/0 = 0
8:4/0/physics_layer_0/linear_velocity = Vector2(0, 0)
8:4/0/physics_layer_0/angular_velocity = 0.0
11:4/0 = 0
11:4/0/physics_layer_0/linear_velocity = Vector2(0, 0)
11:4/0/physics_layer_0/angular_velocity = 0.0
12:4/0 = 0
12:4/0/physics_layer_0/linear_velocity = Vector2(0, 0)
12:4/0/physics_layer_0/angular_velocity = 0.0
13:4/0 = 0
13:4/0/physics_layer_0/linear_velocity = Vector2(0, 0)
13:4/0/physics_layer_0/angular_velocity = 0.0
18:4/0 = 0
18:4/0/y_sort_origin = -16
18:4/0/terrain_set = 0
18:4/0/terrain = 0
18:4/0/physics_layer_0/linear_velocity = Vector2(0, 0)
18:4/0/physics_layer_0/angular_velocity = 0.0
18:4/0/terrains_peering_bit/right_side = 0
18:4/0/terrains_peering_bit/bottom_right_corner = 0
18:4/0/terrains_peering_bit/bottom_side = 0
18:4/0/terrains_peering_bit/bottom_left_corner = 0
18:4/0/terrains_peering_bit/left_side = 0
18:4/0/terrains_peering_bit/top_left_corner = 0
18:4/0/terrains_peering_bit/top_side = 0
18:4/0/terrains_peering_bit/top_right_corner = 0
19:4/0 = 0
19:4/0/y_sort_origin = -16
19:4/0/terrain_set = 0
19:4/0/terrain = 0
19:4/0/physics_layer_0/linear_velocity = Vector2(0, 0)
19:4/0/physics_layer_0/angular_velocity = 0.0
19:4/0/terrains_peering_bit/right_side = 0
19:4/0/terrains_peering_bit/top_side = 0
19:4/0/terrains_peering_bit/top_right_corner = 0
20:4/0 = 0
20:4/0/y_sort_origin = -16
20:4/0/terrain_set = 0
20:4/0/terrain = 0
20:4/0/physics_layer_0/linear_velocity = Vector2(0, 0)
20:4/0/physics_layer_0/angular_velocity = 0.0
20:4/0/terrains_peering_bit/right_side = 0
20:4/0/terrains_peering_bit/left_side = 0
20:4/0/terrains_peering_bit/top_left_corner = 0
20:4/0/terrains_peering_bit/top_side = 0
20:4/0/terrains_peering_bit/top_right_corner = 0
21:4/0 = 0
21:4/0/y_sort_origin = -16
21:4/0/terrain_set = 0
21:4/0/terrain = 0
21:4/0/physics_layer_0/linear_velocity = Vector2(0, 0)
21:4/0/physics_layer_0/angular_velocity = 0.0
21:4/0/terrains_peering_bit/left_side = 0
21:4/0/terrains_peering_bit/top_left_corner = 0
21:4/0/terrains_peering_bit/top_side = 0
22:4/0 = 0
22:4/0/y_sort_origin = -16
22:4/0/terrain_set = 0
22:4/0/terrain = 0
22:4/0/physics_layer_0/linear_velocity = Vector2(0, 0)
22:4/0/physics_layer_0/angular_velocity = 0.0
22:4/0/terrains_peering_bit/right_side = 0
22:4/0/terrains_peering_bit/bottom_right_corner = 0
22:4/0/terrains_peering_bit/bottom_side = 0
22:4/0/terrains_peering_bit/bottom_left_corner = 0
22:4/0/terrains_peering_bit/left_side = 0
22:4/0/terrains_peering_bit/top_left_corner = 0
22:4/0/terrains_peering_bit/top_side = 0
22:4/0/terrains_peering_bit/top_right_corner = 0
0:5/0 = 0
0:5/0/y_sort_origin = -16
0:5/0/terrain_set = 0
0:5/0/terrain = 2
0:5/0/physics_layer_0/linear_velocity = Vector2(0, 0)
0:5/0/physics_layer_0/angular_velocity = 0.0
0:5/0/terrains_peering_bit/right_side = 2
0:5/0/terrains_peering_bit/top_side = 2
0:5/0/terrains_peering_bit/top_right_corner = 2
1:5/0 = 0
1:5/0/y_sort_origin = -16
1:5/0/terrain_set = 0
1:5/0/terrain = 2
1:5/0/physics_layer_0/linear_velocity = Vector2(0, 0)
1:5/0/physics_layer_0/angular_velocity = 0.0
1:5/0/terrains_peering_bit/right_side = 2
1:5/0/terrains_peering_bit/bottom_right_corner = 2
1:5/0/terrains_peering_bit/bottom_side = 2
1:5/0/terrains_peering_bit/left_side = 2
1:5/0/terrains_peering_bit/top_left_corner = 2
1:5/0/terrains_peering_bit/top_side = 2
1:5/0/terrains_peering_bit/top_right_corner = 2
2:5/0 = 0
2:5/0/y_sort_origin = -16
2:5/0/terrain_set = 0
2:5/0/terrain = 2
2:5/0/physics_layer_0/linear_velocity = Vector2(0, 0)
2:5/0/physics_layer_0/angular_velocity = 0.0
2:5/0/terrains_peering_bit/right_side = 2
2:5/0/terrains_peering_bit/bottom_right_corner = 2
2:5/0/terrains_peering_bit/bottom_side = 2
2:5/0/terrains_peering_bit/bottom_left_corner = 2
2:5/0/terrains_peering_bit/left_side = 2
2:5/0/terrains_peering_bit/top_left_corner = 2
2:5/0/terrains_peering_bit/top_side = 2
2:5/0/terrains_peering_bit/top_right_corner = 2
3:5/0 = 0
3:5/0/y_sort_origin = -16
3:5/0/terrain_set = 0
3:5/0/terrain = 2
3:5/0/physics_layer_0/linear_velocity = Vector2(0, 0)
3:5/0/physics_layer_0/angular_velocity = 0.0
3:5/0/terrains_peering_bit/right_side = 2
3:5/0/terrains_peering_bit/bottom_side = 2
3:5/0/terrains_peering_bit/bottom_left_corner = 2
3:5/0/terrains_peering_bit/left_side = 2
3:5/0/terrains_peering_bit/top_left_corner = 2
3:5/0/terrains_peering_bit/top_side = 2
3:5/0/terrains_peering_bit/top_right_corner = 2
4:5/0 = 0
4:5/0/y_sort_origin = -16
4:5/0/terrain_set = 0
4:5/0/terrain = 2
4:5/0/physics_layer_0/linear_velocity = Vector2(0, 0)
4:5/0/physics_layer_0/angular_velocity = 0.0
4:5/0/terrains_peering_bit/left_side = 2
4:5/0/terrains_peering_bit/top_left_corner = 2
4:5/0/terrains_peering_bit/top_side = 2
5:5/0 = 0
5:5/0/physics_layer_0/linear_velocity = Vector2(0, 0)
5:5/0/physics_layer_0/angular_velocity = 0.0
6:5/0 = 0
6:5/0/physics_layer_0/linear_velocity = Vector2(0, 0)
6:5/0/physics_layer_0/angular_velocity = 0.0
7:5/0 = 0
7:5/0/physics_layer_0/linear_velocity = Vector2(0, 0)
7:5/0/physics_layer_0/angular_velocity = 0.0
8:5/0 = 0
8:5/0/physics_layer_0/linear_velocity = Vector2(0, 0)
8:5/0/physics_layer_0/angular_velocity = 0.0
11:5/0 = 0
11:5/0/physics_layer_0/linear_velocity = Vector2(0, 0)
11:5/0/physics_layer_0/angular_velocity = 0.0
12:5/0 = 0
12:5/0/physics_layer_0/linear_velocity = Vector2(0, 0)
12:5/0/physics_layer_0/angular_velocity = 0.0
13:5/0 = 0
13:5/0/physics_layer_0/linear_velocity = Vector2(0, 0)
13:5/0/physics_layer_0/angular_velocity = 0.0
18:5/0 = 0
18:5/0/y_sort_origin = -16
18:5/0/terrain_set = 0
18:5/0/terrain = 0
18:5/0/physics_layer_0/linear_velocity = Vector2(0, 0)
18:5/0/physics_layer_0/angular_velocity = 0.0
18:5/0/terrains_peering_bit/right_side = 0
18:5/0/terrains_peering_bit/bottom_right_corner = 0
18:5/0/terrains_peering_bit/bottom_side = 0
18:5/0/terrains_peering_bit/bottom_left_corner = 0
18:5/0/terrains_peering_bit/left_side = 0
18:5/0/terrains_peering_bit/top_left_corner = 0
18:5/0/terrains_peering_bit/top_side = 0
18:5/0/terrains_peering_bit/top_right_corner = 0
19:5/0 = 0
19:5/0/y_sort_origin = -16
19:5/0/terrain_set = 0
19:5/0/terrain = 0
19:5/0/physics_layer_0/linear_velocity = Vector2(0, 0)
19:5/0/physics_layer_0/angular_velocity = 0.0
19:5/0/terrains_peering_bit/right_side = 0
19:5/0/terrains_peering_bit/bottom_right_corner = 0
19:5/0/terrains_peering_bit/bottom_side = 0
19:5/0/terrains_peering_bit/bottom_left_corner = 0
19:5/0/terrains_peering_bit/left_side = 0
19:5/0/terrains_peering_bit/top_left_corner = 0
19:5/0/terrains_peering_bit/top_side = 0
19:5/0/terrains_peering_bit/top_right_corner = 0
20:5/0 = 0
20:5/0/y_sort_origin = -16
20:5/0/terrain_set = 0
20:5/0/terrain = 0
20:5/0/physics_layer_0/linear_velocity = Vector2(0, 0)
20:5/0/physics_layer_0/angular_velocity = 0.0
20:5/0/terrains_peering_bit/right_side = 0
20:5/0/terrains_peering_bit/bottom_right_corner = 0
20:5/0/terrains_peering_bit/bottom_side = 0
20:5/0/terrains_peering_bit/bottom_left_corner = 0
20:5/0/terrains_peering_bit/left_side = 0
20:5/0/terrains_peering_bit/top_left_corner = 0
20:5/0/terrains_peering_bit/top_side = 0
20:5/0/terrains_peering_bit/top_right_corner = 0
21:5/0 = 0
21:5/0/y_sort_origin = -16
21:5/0/terrain_set = 0
21:5/0/terrain = 0
21:5/0/physics_layer_0/linear_velocity = Vector2(0, 0)
21:5/0/physics_layer_0/angular_velocity = 0.0
21:5/0/terrains_peering_bit/right_side = 0
21:5/0/terrains_peering_bit/bottom_right_corner = 0
21:5/0/terrains_peering_bit/bottom_side = 0
21:5/0/terrains_peering_bit/bottom_left_corner = 0
21:5/0/terrains_peering_bit/left_side = 0
21:5/0/terrains_peering_bit/top_left_corner = 0
21:5/0/terrains_peering_bit/top_side = 0
21:5/0/terrains_peering_bit/top_right_corner = 0
22:5/0 = 0
22:5/0/y_sort_origin = -16
22:5/0/terrain_set = 0
22:5/0/terrain = 0
22:5/0/physics_layer_0/linear_velocity = Vector2(0, 0)
22:5/0/physics_layer_0/angular_velocity = 0.0
22:5/0/terrains_peering_bit/right_side = 0
22:5/0/terrains_peering_bit/bottom_right_corner = 0
22:5/0/terrains_peering_bit/bottom_side = 0
22:5/0/terrains_peering_bit/bottom_left_corner = 0
22:5/0/terrains_peering_bit/left_side = 0
22:5/0/terrains_peering_bit/top_left_corner = 0
22:5/0/terrains_peering_bit/top_side = 0
22:5/0/terrains_peering_bit/top_right_corner = 0
1:6/0 = 0
1:6/0/y_sort_origin = -16
1:6/0/terrain_set = 0
1:6/0/terrain = 2
1:6/0/physics_layer_0/linear_velocity = Vector2(0, 0)
1:6/0/physics_layer_0/angular_velocity = 0.0
1:6/0/terrains_peering_bit/right_side = 2
1:6/0/terrains_peering_bit/top_side = 2
1:6/0/terrains_peering_bit/top_right_corner = 2
2:6/0 = 0
2:6/0/y_sort_origin = -16
2:6/0/terrain_set = 0
2:6/0/terrain = 2
2:6/0/physics_layer_0/linear_velocity = Vector2(0, 0)
2:6/0/physics_layer_0/angular_velocity = 0.0
2:6/0/terrains_peering_bit/right_side = 2
2:6/0/terrains_peering_bit/left_side = 2
2:6/0/terrains_peering_bit/top_left_corner = 2
2:6/0/terrains_peering_bit/top_side = 2
2:6/0/terrains_peering_bit/top_right_corner = 2
3:6/0 = 0
3:6/0/y_sort_origin = -16
3:6/0/terrain_set = 0
3:6/0/terrain = 2
3:6/0/physics_layer_0/linear_velocity = Vector2(0, 0)
3:6/0/physics_layer_0/angular_velocity = 0.0
3:6/0/terrains_peering_bit/left_side = 2
3:6/0/terrains_peering_bit/top_left_corner = 2
3:6/0/terrains_peering_bit/top_side = 2
5:6/0 = 0
5:6/0/physics_layer_0/linear_velocity = Vector2(0, 0)
5:6/0/physics_layer_0/angular_velocity = 0.0
6:6/0 = 0
6:6/0/physics_layer_0/linear_velocity = Vector2(0, 0)
6:6/0/physics_layer_0/angular_velocity = 0.0
7:6/0 = 0
7:6/0/physics_layer_0/linear_velocity = Vector2(0, 0)
7:6/0/physics_layer_0/angular_velocity = 0.0
8:6/0 = 0
8:6/0/physics_layer_0/linear_velocity = Vector2(0, 0)
8:6/0/physics_layer_0/angular_velocity = 0.0
11:6/0 = 0
11:6/0/physics_layer_0/linear_velocity = Vector2(0, 0)
11:6/0/physics_layer_0/angular_velocity = 0.0
12:6/0 = 0
12:6/0/physics_layer_0/linear_velocity = Vector2(0, 0)
12:6/0/physics_layer_0/angular_velocity = 0.0
13:6/0 = 0
13:6/0/physics_layer_0/linear_velocity = Vector2(0, 0)
13:6/0/physics_layer_0/angular_velocity = 0.0
18:6/0 = 0
18:6/0/y_sort_origin = -16
18:6/0/terrain_set = 0
18:6/0/terrain = 0
18:6/0/physics_layer_0/linear_velocity = Vector2(0, 0)
18:6/0/physics_layer_0/angular_velocity = 0.0
18:6/0/terrains_peering_bit/right_side = 0
18:6/0/terrains_peering_bit/bottom_right_corner = 0
18:6/0/terrains_peering_bit/bottom_side = 0
18:6/0/terrains_peering_bit/bottom_left_corner = 0
18:6/0/terrains_peering_bit/left_side = 0
18:6/0/terrains_peering_bit/top_left_corner = 0
18:6/0/terrains_peering_bit/top_side = 0
18:6/0/terrains_peering_bit/top_right_corner = 0
19:6/0 = 0
19:6/0/y_sort_origin = -16
19:6/0/terrain_set = 0
19:6/0/terrain = 0
19:6/0/physics_layer_0/linear_velocity = Vector2(0, 0)
19:6/0/physics_layer_0/angular_velocity = 0.0
19:6/0/terrains_peering_bit/right_side = 0
19:6/0/terrains_peering_bit/bottom_right_corner = 0
19:6/0/terrains_peering_bit/bottom_side = 0
19:6/0/terrains_peering_bit/bottom_left_corner = 0
19:6/0/terrains_peering_bit/left_side = 0
19:6/0/terrains_peering_bit/top_left_corner = 0
19:6/0/terrains_peering_bit/top_side = 0
19:6/0/terrains_peering_bit/top_right_corner = 0
20:6/0 = 0
20:6/0/y_sort_origin = -16
20:6/0/terrain_set = 0
20:6/0/terrain = 0
20:6/0/physics_layer_0/linear_velocity = Vector2(0, 0)
20:6/0/physics_layer_0/angular_velocity = 0.0
20:6/0/terrains_peering_bit/right_side = 0
20:6/0/terrains_peering_bit/bottom_right_corner = 0
20:6/0/terrains_peering_bit/bottom_side = 0
20:6/0/terrains_peering_bit/bottom_left_corner = 0
20:6/0/terrains_peering_bit/left_side = 0
20:6/0/terrains_peering_bit/top_left_corner = 0
20:6/0/terrains_peering_bit/top_side = 0
20:6/0/terrains_peering_bit/top_right_corner = 0
21:6/0 = 0
21:6/0/y_sort_origin = -16
21:6/0/terrain_set = 0
21:6/0/terrain = 0
21:6/0/physics_layer_0/linear_velocity = Vector2(0, 0)
21:6/0/physics_layer_0/angular_velocity = 0.0
21:6/0/terrains_peering_bit/right_side = 0
21:6/0/terrains_peering_bit/bottom_right_corner = 0
21:6/0/terrains_peering_bit/bottom_side = 0
21:6/0/terrains_peering_bit/bottom_left_corner = 0
21:6/0/terrains_peering_bit/left_side = 0
21:6/0/terrains_peering_bit/top_left_corner = 0
21:6/0/terrains_peering_bit/top_side = 0
21:6/0/terrains_peering_bit/top_right_corner = 0
22:6/0 = 0
22:6/0/y_sort_origin = -16
22:6/0/terrain_set = 0
22:6/0/terrain = 0
22:6/0/physics_layer_0/linear_velocity = Vector2(0, 0)
22:6/0/physics_layer_0/angular_velocity = 0.0
22:6/0/terrains_peering_bit/right_side = 0
22:6/0/terrains_peering_bit/bottom_right_corner = 0
22:6/0/terrains_peering_bit/bottom_side = 0
22:6/0/terrains_peering_bit/bottom_left_corner = 0
22:6/0/terrains_peering_bit/left_side = 0
22:6/0/terrains_peering_bit/top_left_corner = 0
22:6/0/terrains_peering_bit/top_side = 0
22:6/0/terrains_peering_bit/top_right_corner = 0
5:7/0 = 0
5:7/0/physics_layer_0/linear_velocity = Vector2(0, 0)
5:7/0/physics_layer_0/angular_velocity = 0.0
6:7/0 = 0
6:7/0/physics_layer_0/linear_velocity = Vector2(0, 0)
6:7/0/physics_layer_0/angular_velocity = 0.0
7:7/0 = 0
7:7/0/physics_layer_0/linear_velocity = Vector2(0, 0)
7:7/0/physics_layer_0/angular_velocity = 0.0
8:7/0 = 0
8:7/0/physics_layer_0/linear_velocity = Vector2(0, 0)
8:7/0/physics_layer_0/angular_velocity = 0.0
18:7/0 = 0
18:7/0/y_sort_origin = -16
18:7/0/terrain_set = 0
18:7/0/terrain = 0
18:7/0/physics_layer_0/linear_velocity = Vector2(0, 0)
18:7/0/physics_layer_0/angular_velocity = 0.0
18:7/0/terrains_peering_bit/right_side = 0
18:7/0/terrains_peering_bit/bottom_right_corner = 0
18:7/0/terrains_peering_bit/bottom_side = 0
18:7/0/terrains_peering_bit/bottom_left_corner = 0
18:7/0/terrains_peering_bit/left_side = 0
18:7/0/terrains_peering_bit/top_left_corner = 0
18:7/0/terrains_peering_bit/top_side = 0
18:7/0/terrains_peering_bit/top_right_corner = 0
19:7/0 = 0
19:7/0/y_sort_origin = -16
19:7/0/terrain_set = 0
19:7/0/terrain = 0
19:7/0/physics_layer_0/linear_velocity = Vector2(0, 0)
19:7/0/physics_layer_0/angular_velocity = 0.0
19:7/0/terrains_peering_bit/right_side = 0
19:7/0/terrains_peering_bit/bottom_right_corner = 0
19:7/0/terrains_peering_bit/bottom_side = 0
19:7/0/terrains_peering_bit/bottom_left_corner = 0
19:7/0/terrains_peering_bit/left_side = 0
19:7/0/terrains_peering_bit/top_left_corner = 0
19:7/0/terrains_peering_bit/top_side = 0
19:7/0/terrains_peering_bit/top_right_corner = 0
20:7/0 = 0
20:7/0/y_sort_origin = -16
20:7/0/terrain_set = 0
20:7/0/terrain = 0
20:7/0/physics_layer_0/linear_velocity = Vector2(0, 0)
20:7/0/physics_layer_0/angular_velocity = 0.0
20:7/0/terrains_peering_bit/right_side = 0
20:7/0/terrains_peering_bit/bottom_right_corner = 0
20:7/0/terrains_peering_bit/bottom_side = 0
20:7/0/terrains_peering_bit/bottom_left_corner = 0
20:7/0/terrains_peering_bit/left_side = 0
20:7/0/terrains_peering_bit/top_left_corner = 0
20:7/0/terrains_peering_bit/top_side = 0
20:7/0/terrains_peering_bit/top_right_corner = 0
21:7/0 = 0
21:7/0/y_sort_origin = -16
21:7/0/terrain_set = 0
21:7/0/terrain = 0
21:7/0/physics_layer_0/linear_velocity = Vector2(0, 0)
21:7/0/physics_layer_0/angular_velocity = 0.0
21:7/0/terrains_peering_bit/right_side = 0
21:7/0/terrains_peering_bit/bottom_right_corner = 0
21:7/0/terrains_peering_bit/bottom_side = 0
21:7/0/terrains_peering_bit/bottom_left_corner = 0
21:7/0/terrains_peering_bit/left_side = 0
21:7/0/terrains_peering_bit/top_left_corner = 0
21:7/0/terrains_peering_bit/top_side = 0
21:7/0/terrains_peering_bit/top_right_corner = 0
22:7/0 = 0
22:7/0/y_sort_origin = -16
22:7/0/terrain_set = 0
22:7/0/terrain = 0
22:7/0/physics_layer_0/linear_velocity = Vector2(0, 0)
22:7/0/physics_layer_0/angular_velocity = 0.0
22:7/0/terrains_peering_bit/right_side = 0
22:7/0/terrains_peering_bit/bottom_right_corner = 0
22:7/0/terrains_peering_bit/bottom_side = 0
22:7/0/terrains_peering_bit/bottom_left_corner = 0
22:7/0/terrains_peering_bit/left_side = 0
22:7/0/terrains_peering_bit/top_left_corner = 0
22:7/0/terrains_peering_bit/top_side = 0
22:7/0/terrains_peering_bit/top_right_corner = 0
0:8/0 = 0
0:8/0/physics_layer_0/linear_velocity = Vector2(0, 0)
0:8/0/physics_layer_0/angular_velocity = 0.0
1:8/0 = 0
1:8/0/physics_layer_0/linear_velocity = Vector2(0, 0)
1:8/0/physics_layer_0/angular_velocity = 0.0
2:8/0 = 0
2:8/0/physics_layer_0/linear_velocity = Vector2(0, 0)
2:8/0/physics_layer_0/angular_velocity = 0.0
3:8/0 = 0
3:8/0/physics_layer_0/linear_velocity = Vector2(0, 0)
3:8/0/physics_layer_0/angular_velocity = 0.0
4:8/0 = 0
4:8/0/physics_layer_0/linear_velocity = Vector2(0, 0)
4:8/0/physics_layer_0/angular_velocity = 0.0
5:8/0 = 0
5:8/0/physics_layer_0/linear_velocity = Vector2(0, 0)
5:8/0/physics_layer_0/angular_velocity = 0.0
6:8/0 = 0
6:8/0/physics_layer_0/linear_velocity = Vector2(0, 0)
6:8/0/physics_layer_0/angular_velocity = 0.0
7:8/0 = 0
7:8/0/physics_layer_0/linear_velocity = Vector2(0, 0)
7:8/0/physics_layer_0/angular_velocity = 0.0
8:8/0 = 0
8:8/0/physics_layer_0/linear_velocity = Vector2(0, 0)
8:8/0/physics_layer_0/angular_velocity = 0.0
9:8/0 = 0
9:8/0/physics_layer_0/linear_velocity = Vector2(0, 0)
9:8/0/physics_layer_0/angular_velocity = 0.0
10:8/0 = 0
10:8/0/physics_layer_0/linear_velocity = Vector2(0, 0)
10:8/0/physics_layer_0/angular_velocity = 0.0
11:8/0 = 0
11:8/0/physics_layer_0/linear_velocity = Vector2(0, 0)
11:8/0/physics_layer_0/angular_velocity = 0.0
12:8/0 = 0
12:8/0/physics_layer_0/linear_velocity = Vector2(0, 0)
12:8/0/physics_layer_0/angular_velocity = 0.0
13:8/0 = 0
13:8/0/physics_layer_0/linear_velocity = Vector2(0, 0)
13:8/0/physics_layer_0/angular_velocity = 0.0
14:8/0 = 0
14:8/0/physics_layer_0/linear_velocity = Vector2(0, 0)
14:8/0/physics_layer_0/angular_velocity = 0.0
15:8/0 = 0
15:8/0/physics_layer_0/linear_velocity = Vector2(0, 0)
15:8/0/physics_layer_0/angular_velocity = 0.0
18:8/0 = 0
18:8/0/y_sort_origin = -16
18:8/0/terrain_set = 0
18:8/0/terrain = 1
18:8/0/physics_layer_0/linear_velocity = Vector2(0, 0)
18:8/0/physics_layer_0/angular_velocity = 0.0
18:8/0/terrains_peering_bit/right_side = 1
18:8/0/terrains_peering_bit/bottom_side = 1
18:8/0/terrains_peering_bit/bottom_left_corner = 1
18:8/0/terrains_peering_bit/left_side = 1
18:8/0/terrains_peering_bit/top_side = 1
18:8/0/terrains_peering_bit/top_right_corner = 1
19:8/0 = 0
19:8/0/y_sort_origin = -16
19:8/0/terrain_set = 0
19:8/0/terrain = 1
19:8/0/physics_layer_0/linear_velocity = Vector2(0, 0)
19:8/0/physics_layer_0/angular_velocity = 0.0
19:8/0/terrains_peering_bit/right_side = 1
19:8/0/terrains_peering_bit/bottom_right_corner = 1
19:8/0/terrains_peering_bit/bottom_side = 1
20:8/0 = 0
20:8/0/y_sort_origin = -16
20:8/0/terrain_set = 0
20:8/0/terrain = 1
20:8/0/physics_layer_0/linear_velocity = Vector2(0, 0)
20:8/0/physics_layer_0/angular_velocity = 0.0
20:8/0/terrains_peering_bit/right_side = 1
20:8/0/terrains_peering_bit/bottom_right_corner = 1
20:8/0/terrains_peering_bit/bottom_side = 1
20:8/0/terrains_peering_bit/bottom_left_corner = 1
20:8/0/terrains_peering_bit/left_side = 1
21:8/0 = 0
21:8/0/y_sort_origin = -16
21:8/0/terrain_set = 0
21:8/0/terrain = 1
21:8/0/physics_layer_0/linear_velocity = Vector2(0, 0)
21:8/0/physics_layer_0/angular_velocity = 0.0
21:8/0/terrains_peering_bit/bottom_side = 1
21:8/0/terrains_peering_bit/bottom_left_corner = 1
21:8/0/terrains_peering_bit/left_side = 1
22:8/0 = 0
22:8/0/y_sort_origin = -16
22:8/0/terrain_set = 0
22:8/0/terrain = 1
22:8/0/physics_layer_0/linear_velocity = Vector2(0, 0)
22:8/0/physics_layer_0/angular_velocity = 0.0
22:8/0/terrains_peering_bit/right_side = 1
22:8/0/terrains_peering_bit/bottom_right_corner = 1
22:8/0/terrains_peering_bit/bottom_side = 1
22:8/0/terrains_peering_bit/left_side = 1
22:8/0/terrains_peering_bit/top_left_corner = 1
22:8/0/terrains_peering_bit/top_side = 1
23:8/0 = 0
23:8/0/physics_layer_0/linear_velocity = Vector2(0, 0)
23:8/0/physics_layer_0/angular_velocity = 0.0
24:8/0 = 0
24:8/0/physics_layer_0/linear_velocity = Vector2(0, 0)
24:8/0/physics_layer_0/angular_velocity = 0.0
25:8/0 = 0
25:8/0/physics_layer_0/linear_velocity = Vector2(0, 0)
25:8/0/physics_layer_0/angular_velocity = 0.0
26:8/0 = 0
26:8/0/physics_layer_0/linear_velocity = Vector2(0, 0)
26:8/0/physics_layer_0/angular_velocity = 0.0
27:8/0 = 0
27:8/0/physics_layer_0/linear_velocity = Vector2(0, 0)
27:8/0/physics_layer_0/angular_velocity = 0.0
28:8/0 = 0
28:8/0/physics_layer_0/linear_velocity = Vector2(0, 0)
28:8/0/physics_layer_0/angular_velocity = 0.0
29:8/0 = 0
29:8/0/physics_layer_0/linear_velocity = Vector2(0, 0)
29:8/0/physics_layer_0/angular_velocity = 0.0
30:8/0 = 0
30:8/0/physics_layer_0/linear_velocity = Vector2(0, 0)
30:8/0/physics_layer_0/angular_velocity = 0.0
31:8/0 = 0
31:8/0/physics_layer_0/linear_velocity = Vector2(0, 0)
31:8/0/physics_layer_0/angular_velocity = 0.0
32:8/0 = 0
32:8/0/physics_layer_0/linear_velocity = Vector2(0, 0)
32:8/0/physics_layer_0/angular_velocity = 0.0
33:8/0 = 0
33:8/0/physics_layer_0/linear_velocity = Vector2(0, 0)
33:8/0/physics_layer_0/angular_velocity = 0.0
34:8/0 = 0
34:8/0/physics_layer_0/linear_velocity = Vector2(0, 0)
34:8/0/physics_layer_0/angular_velocity = 0.0
0:9/0 = 0
0:9/0/physics_layer_0/linear_velocity = Vector2(0, 0)
0:9/0/physics_layer_0/angular_velocity = 0.0
1:9/0 = 0
1:9/0/physics_layer_0/linear_velocity = Vector2(0, 0)
1:9/0/physics_layer_0/angular_velocity = 0.0
2:9/0 = 0
2:9/0/physics_layer_0/linear_velocity = Vector2(0, 0)
2:9/0/physics_layer_0/angular_velocity = 0.0
3:9/0 = 0
3:9/0/physics_layer_0/linear_velocity = Vector2(0, 0)
3:9/0/physics_layer_0/angular_velocity = 0.0
4:9/0 = 0
4:9/0/physics_layer_0/linear_velocity = Vector2(0, 0)
4:9/0/physics_layer_0/angular_velocity = 0.0
5:9/0 = 0
5:9/0/physics_layer_0/linear_velocity = Vector2(0, 0)
5:9/0/physics_layer_0/angular_velocity = 0.0
6:9/0 = 0
6:9/0/physics_layer_0/linear_velocity = Vector2(0, 0)
6:9/0/physics_layer_0/angular_velocity = 0.0
7:9/0 = 0
7:9/0/physics_layer_0/linear_velocity = Vector2(0, 0)
7:9/0/physics_layer_0/angular_velocity = 0.0
8:9/0 = 0
8:9/0/physics_layer_0/linear_velocity = Vector2(0, 0)
8:9/0/physics_layer_0/angular_velocity = 0.0
9:9/0 = 0
9:9/0/physics_layer_0/linear_velocity = Vector2(0, 0)
9:9/0/physics_layer_0/angular_velocity = 0.0
10:9/0 = 0
10:9/0/physics_layer_0/linear_velocity = Vector2(0, 0)
10:9/0/physics_layer_0/angular_velocity = 0.0
11:9/0 = 0
11:9/0/physics_layer_0/linear_velocity = Vector2(0, 0)
11:9/0/physics_layer_0/angular_velocity = 0.0
12:9/0 = 0
12:9/0/physics_layer_0/linear_velocity = Vector2(0, 0)
12:9/0/physics_layer_0/angular_velocity = 0.0
13:9/0 = 0
13:9/0/physics_layer_0/linear_velocity = Vector2(0, 0)
13:9/0/physics_layer_0/angular_velocity = 0.0
14:9/0 = 0
14:9/0/y_sort_origin = 16
14:9/0/physics_layer_0/linear_velocity = Vector2(0, 0)
14:9/0/physics_layer_0/angular_velocity = 0.0
15:9/0 = 0
15:9/0/y_sort_origin = 16
15:9/0/physics_layer_0/linear_velocity = Vector2(0, 0)
15:9/0/physics_layer_0/angular_velocity = 0.0
18:9/0 = 0
18:9/0/y_sort_origin = -16
18:9/0/terrain_set = 0
18:9/0/terrain = 1
18:9/0/physics_layer_0/linear_velocity = Vector2(0, 0)
18:9/0/physics_layer_0/angular_velocity = 0.0
18:9/0/terrains_peering_bit/right_side = 1
18:9/0/terrains_peering_bit/bottom_right_corner = 1
18:9/0/terrains_peering_bit/bottom_side = 1
19:9/0 = 0
19:9/0/y_sort_origin = -16
19:9/0/terrain_set = 0
19:9/0/terrain = 1
19:9/0/physics_layer_0/linear_velocity = Vector2(0, 0)
19:9/0/physics_layer_0/angular_velocity = 0.0
19:9/0/terrains_peering_bit/right_side = 1
19:9/0/terrains_peering_bit/bottom_right_corner = 1
19:9/0/terrains_peering_bit/bottom_side = 1
19:9/0/terrains_peering_bit/bottom_left_corner = 1
19:9/0/terrains_peering_bit/left_side = 1
19:9/0/terrains_peering_bit/top_side = 1
19:9/0/terrains_peering_bit/top_right_corner = 1
20:9/0 = 0
20:9/0/y_sort_origin = -16
20:9/0/terrain_set = 0
20:9/0/terrain = 1
20:9/0/physics_layer_0/linear_velocity = Vector2(0, 0)
20:9/0/physics_layer_0/angular_velocity = 0.0
20:9/0/terrains_peering_bit/right_side = 1
20:9/0/terrains_peering_bit/bottom_right_corner = 1
20:9/0/terrains_peering_bit/bottom_side = 1
20:9/0/terrains_peering_bit/bottom_left_corner = 1
20:9/0/terrains_peering_bit/left_side = 1
20:9/0/terrains_peering_bit/top_left_corner = 1
20:9/0/terrains_peering_bit/top_side = 1
20:9/0/terrains_peering_bit/top_right_corner = 1
21:9/0 = 0
21:9/0/y_sort_origin = -16
21:9/0/terrain_set = 0
21:9/0/terrain = 1
21:9/0/physics_layer_0/linear_velocity = Vector2(0, 0)
21:9/0/physics_layer_0/angular_velocity = 0.0
21:9/0/terrains_peering_bit/right_side = 1
21:9/0/terrains_peering_bit/bottom_right_corner = 1
21:9/0/terrains_peering_bit/bottom_side = 1
21:9/0/terrains_peering_bit/bottom_left_corner = 1
21:9/0/terrains_peering_bit/left_side = 1
21:9/0/terrains_peering_bit/top_left_corner = 1
21:9/0/terrains_peering_bit/top_side = 1
22:9/0 = 0
22:9/0/y_sort_origin = -16
22:9/0/terrain_set = 0
22:9/0/terrain = 1
22:9/0/physics_layer_0/linear_velocity = Vector2(0, 0)
22:9/0/physics_layer_0/angular_velocity = 0.0
22:9/0/terrains_peering_bit/bottom_side = 1
22:9/0/terrains_peering_bit/bottom_left_corner = 1
22:9/0/terrains_peering_bit/left_side = 1
23:9/0 = 0
23:9/0/physics_layer_0/linear_velocity = Vector2(0, 0)
23:9/0/physics_layer_0/angular_velocity = 0.0
24:9/0 = 0
24:9/0/physics_layer_0/linear_velocity = Vector2(0, 0)
24:9/0/physics_layer_0/angular_velocity = 0.0
25:9/0 = 0
25:9/0/physics_layer_0/linear_velocity = Vector2(0, 0)
25:9/0/physics_layer_0/angular_velocity = 0.0
26:9/0 = 0
26:9/0/physics_layer_0/linear_velocity = Vector2(0, 0)
26:9/0/physics_layer_0/angular_velocity = 0.0
27:9/0 = 0
27:9/0/physics_layer_0/linear_velocity = Vector2(0, 0)
27:9/0/physics_layer_0/angular_velocity = 0.0
28:9/0 = 0
28:9/0/physics_layer_0/linear_velocity = Vector2(0, 0)
28:9/0/physics_layer_0/angular_velocity = 0.0
29:9/0 = 0
29:9/0/physics_layer_0/linear_velocity = Vector2(0, 0)
29:9/0/physics_layer_0/angular_velocity = 0.0
30:9/0 = 0
30:9/0/physics_layer_0/linear_velocity = Vector2(0, 0)
30:9/0/physics_layer_0/angular_velocity = 0.0
31:9/0 = 0
31:9/0/physics_layer_0/linear_velocity = Vector2(0, 0)
31:9/0/physics_layer_0/angular_velocity = 0.0
32:9/0 = 0
32:9/0/physics_layer_0/linear_velocity = Vector2(0, 0)
32:9/0/physics_layer_0/angular_velocity = 0.0
33:9/0 = 0
33:9/0/physics_layer_0/linear_velocity = Vector2(0, 0)
33:9/0/physics_layer_0/angular_velocity = 0.0
34:9/0 = 0
34:9/0/physics_layer_0/linear_velocity = Vector2(0, 0)
34:9/0/physics_layer_0/angular_velocity = 0.0
4:10/0 = 0
4:10/0/physics_layer_0/linear_velocity = Vector2(0, 0)
4:10/0/physics_layer_0/angular_velocity = 0.0
5:10/0 = 0
5:10/0/physics_layer_0/linear_velocity = Vector2(0, 0)
5:10/0/physics_layer_0/angular_velocity = 0.0
12:10/0 = 0
12:10/0/physics_layer_0/linear_velocity = Vector2(0, 0)
12:10/0/physics_layer_0/angular_velocity = 0.0
13:10/0 = 0
13:10/0/physics_layer_0/linear_velocity = Vector2(0, 0)
13:10/0/physics_layer_0/angular_velocity = 0.0
14:10/0 = 0
14:10/0/y_sort_origin = 16
14:10/0/physics_layer_0/linear_velocity = Vector2(0, 0)
14:10/0/physics_layer_0/angular_velocity = 0.0
15:10/0 = 0
15:10/0/y_sort_origin = 16
15:10/0/physics_layer_0/linear_velocity = Vector2(0, 0)
15:10/0/physics_layer_0/angular_velocity = 0.0
18:10/0 = 0
18:10/0/y_sort_origin = -16
18:10/0/terrain_set = 0
18:10/0/terrain = 1
18:10/0/physics_layer_0/linear_velocity = Vector2(0, 0)
18:10/0/physics_layer_0/angular_velocity = 0.0
18:10/0/terrains_peering_bit/right_side = 1
18:10/0/terrains_peering_bit/bottom_right_corner = 1
18:10/0/terrains_peering_bit/bottom_side = 1
18:10/0/terrains_peering_bit/top_side = 1
18:10/0/terrains_peering_bit/top_right_corner = 1
19:10/0 = 0
19:10/0/y_sort_origin = -16
19:10/0/terrain_set = 0
19:10/0/terrain = 1
19:10/0/physics_layer_0/linear_velocity = Vector2(0, 0)
19:10/0/physics_layer_0/angular_velocity = 0.0
19:10/0/terrains_peering_bit/right_side = 1
19:10/0/terrains_peering_bit/bottom_right_corner = 1
19:10/0/terrains_peering_bit/bottom_side = 1
19:10/0/terrains_peering_bit/bottom_left_corner = 1
19:10/0/terrains_peering_bit/left_side = 1
19:10/0/terrains_peering_bit/top_left_corner = 1
19:10/0/terrains_peering_bit/top_side = 1
19:10/0/terrains_peering_bit/top_right_corner = 1
20:10/0 = 0
20:10/0/y_sort_origin = -16
20:10/0/terrain_set = 0
20:10/0/terrain = 1
20:10/0/physics_layer_0/linear_velocity = Vector2(0, 0)
20:10/0/physics_layer_0/angular_velocity = 0.0
20:10/0/terrains_peering_bit/right_side = 1
20:10/0/terrains_peering_bit/bottom_right_corner = 1
20:10/0/terrains_peering_bit/bottom_side = 1
20:10/0/terrains_peering_bit/bottom_left_corner = 1
20:10/0/terrains_peering_bit/left_side = 1
20:10/0/terrains_peering_bit/top_left_corner = 1
20:10/0/terrains_peering_bit/top_side = 1
20:10/0/terrains_peering_bit/top_right_corner = 1
21:10/0 = 0
21:10/0/y_sort_origin = -16
21:10/0/terrain_set = 0
21:10/0/terrain = 1
21:10/0/physics_layer_0/linear_velocity = Vector2(0, 0)
21:10/0/physics_layer_0/angular_velocity = 0.0
21:10/0/terrains_peering_bit/right_side = 1
21:10/0/terrains_peering_bit/bottom_right_corner = 1
21:10/0/terrains_peering_bit/bottom_side = 1
21:10/0/terrains_peering_bit/bottom_left_corner = 1
21:10/0/terrains_peering_bit/left_side = 1
21:10/0/terrains_peering_bit/top_left_corner = 1
21:10/0/terrains_peering_bit/top_side = 1
21:10/0/terrains_peering_bit/top_right_corner = 1
22:10/0 = 0
22:10/0/y_sort_origin = -16
22:10/0/terrain_set = 0
22:10/0/terrain = 1
22:10/0/physics_layer_0/linear_velocity = Vector2(0, 0)
22:10/0/physics_layer_0/angular_velocity = 0.0
22:10/0/terrains_peering_bit/bottom_side = 1
22:10/0/terrains_peering_bit/bottom_left_corner = 1
22:10/0/terrains_peering_bit/left_side = 1
22:10/0/terrains_peering_bit/top_left_corner = 1
22:10/0/terrains_peering_bit/top_side = 1
23:10/0 = 0
23:10/0/physics_layer_0/linear_velocity = Vector2(0, 0)
23:10/0/physics_layer_0/angular_velocity = 0.0
24:10/0 = 0
24:10/0/physics_layer_0/linear_velocity = Vector2(0, 0)
24:10/0/physics_layer_0/angular_velocity = 0.0
25:10/0 = 0
25:10/0/physics_layer_0/linear_velocity = Vector2(0, 0)
25:10/0/physics_layer_0/angular_velocity = 0.0
26:10/0 = 0
26:10/0/physics_layer_0/linear_velocity = Vector2(0, 0)
26:10/0/physics_layer_0/angular_velocity = 0.0
27:10/0 = 0
27:10/0/physics_layer_0/linear_velocity = Vector2(0, 0)
27:10/0/physics_layer_0/angular_velocity = 0.0
28:10/0 = 0
28:10/0/physics_layer_0/linear_velocity = Vector2(0, 0)
28:10/0/physics_layer_0/angular_velocity = 0.0
29:10/0 = 0
29:10/0/physics_layer_0/linear_velocity = Vector2(0, 0)
29:10/0/physics_layer_0/angular_velocity = 0.0
30:10/0 = 0
30:10/0/physics_layer_0/linear_velocity = Vector2(0, 0)
30:10/0/physics_layer_0/angular_velocity = 0.0
31:10/0 = 0
31:10/0/physics_layer_0/linear_velocity = Vector2(0, 0)
31:10/0/physics_layer_0/angular_velocity = 0.0
32:10/0 = 0
32:10/0/physics_layer_0/linear_velocity = Vector2(0, 0)
32:10/0/physics_layer_0/angular_velocity = 0.0
33:10/0 = 0
33:10/0/physics_layer_0/linear_velocity = Vector2(0, 0)
33:10/0/physics_layer_0/angular_velocity = 0.0
34:10/0 = 0
34:10/0/physics_layer_0/linear_velocity = Vector2(0, 0)
34:10/0/physics_layer_0/angular_velocity = 0.0
0:11/0 = 0
0:11/0/physics_layer_0/linear_velocity = Vector2(0, 0)
0:11/0/physics_layer_0/angular_velocity = 0.0
1:11/0 = 0
1:11/0/physics_layer_0/linear_velocity = Vector2(0, 0)
1:11/0/physics_layer_0/angular_velocity = 0.0
2:11/0 = 0
2:11/0/physics_layer_0/linear_velocity = Vector2(0, 0)
2:11/0/physics_layer_0/angular_velocity = 0.0
3:11/0 = 0
3:11/0/physics_layer_0/linear_velocity = Vector2(0, 0)
3:11/0/physics_layer_0/angular_velocity = 0.0
4:11/0 = 0
4:11/0/physics_layer_0/linear_velocity = Vector2(0, 0)
4:11/0/physics_layer_0/angular_velocity = 0.0
5:11/0 = 0
5:11/0/physics_layer_0/linear_velocity = Vector2(0, 0)
5:11/0/physics_layer_0/angular_velocity = 0.0
12:11/0 = 0
12:11/0/physics_layer_0/linear_velocity = Vector2(0, 0)
12:11/0/physics_layer_0/angular_velocity = 0.0
13:11/0 = 0
13:11/0/physics_layer_0/linear_velocity = Vector2(0, 0)
13:11/0/physics_layer_0/angular_velocity = 0.0
14:11/0 = 0
14:11/0/y_sort_origin = 16
14:11/0/physics_layer_0/linear_velocity = Vector2(0, 0)
14:11/0/physics_layer_0/angular_velocity = 0.0
15:11/0 = 0
15:11/0/y_sort_origin = 16
15:11/0/physics_layer_0/linear_velocity = Vector2(0, 0)
15:11/0/physics_layer_0/angular_velocity = 0.0
18:11/0 = 0
18:11/0/y_sort_origin = -16
18:11/0/terrain_set = 0
18:11/0/terrain = 1
18:11/0/physics_layer_0/linear_velocity = Vector2(0, 0)
18:11/0/physics_layer_0/angular_velocity = 0.0
18:11/0/terrains_peering_bit/right_side = 1
18:11/0/terrains_peering_bit/top_side = 1
18:11/0/terrains_peering_bit/top_right_corner = 1
19:11/0 = 0
19:11/0/y_sort_origin = -16
19:11/0/terrain_set = 0
19:11/0/terrain = 1
19:11/0/physics_layer_0/linear_velocity = Vector2(0, 0)
19:11/0/physics_layer_0/angular_velocity = 0.0
19:11/0/terrains_peering_bit/right_side = 1
19:11/0/terrains_peering_bit/bottom_right_corner = 1
19:11/0/terrains_peering_bit/bottom_side = 1
19:11/0/terrains_peering_bit/left_side = 1
19:11/0/terrains_peering_bit/top_left_corner = 1
19:11/0/terrains_peering_bit/top_side = 1
19:11/0/terrains_peering_bit/top_right_corner = 1
20:11/0 = 0
20:11/0/y_sort_origin = -16
20:11/0/terrain_set = 0
20:11/0/terrain = 1
20:11/0/physics_layer_0/linear_velocity = Vector2(0, 0)
20:11/0/physics_layer_0/angular_velocity = 0.0
20:11/0/terrains_peering_bit/right_side = 1
20:11/0/terrains_peering_bit/bottom_right_corner = 1
20:11/0/terrains_peering_bit/bottom_side = 1
20:11/0/terrains_peering_bit/bottom_left_corner = 1
20:11/0/terrains_peering_bit/left_side = 1
20:11/0/terrains_peering_bit/top_left_corner = 1
20:11/0/terrains_peering_bit/top_side = 1
20:11/0/terrains_peering_bit/top_right_corner = 1
21:11/0 = 0
21:11/0/y_sort_origin = -16
21:11/0/terrain_set = 0
21:11/0/terrain = 1
21:11/0/physics_layer_0/linear_velocity = Vector2(0, 0)
21:11/0/physics_layer_0/angular_velocity = 0.0
21:11/0/terrains_peering_bit/right_side = 1
21:11/0/terrains_peering_bit/bottom_side = 1
21:11/0/terrains_peering_bit/bottom_left_corner = 1
21:11/0/terrains_peering_bit/left_side = 1
21:11/0/terrains_peering_bit/top_left_corner = 1
21:11/0/terrains_peering_bit/top_side = 1
21:11/0/terrains_peering_bit/top_right_corner = 1
22:11/0 = 0
22:11/0/y_sort_origin = -16
22:11/0/terrain_set = 0
22:11/0/terrain = 1
22:11/0/physics_layer_0/linear_velocity = Vector2(0, 0)
22:11/0/physics_layer_0/angular_velocity = 0.0
22:11/0/terrains_peering_bit/left_side = 1
22:11/0/terrains_peering_bit/top_left_corner = 1
22:11/0/terrains_peering_bit/top_side = 1
25:11/0 = 0
25:11/0/physics_layer_0/linear_velocity = Vector2(0, 0)
25:11/0/physics_layer_0/angular_velocity = 0.0
28:11/0 = 0
28:11/0/physics_layer_0/linear_velocity = Vector2(0, 0)
28:11/0/physics_layer_0/angular_velocity = 0.0
29:11/0 = 0
29:11/0/physics_layer_0/linear_velocity = Vector2(0, 0)
29:11/0/physics_layer_0/angular_velocity = 0.0
30:11/0 = 0
30:11/0/physics_layer_0/linear_velocity = Vector2(0, 0)
30:11/0/physics_layer_0/angular_velocity = 0.0
31:11/0 = 0
31:11/0/physics_layer_0/linear_velocity = Vector2(0, 0)
31:11/0/physics_layer_0/angular_velocity = 0.0
32:11/0 = 0
32:11/0/physics_layer_0/linear_velocity = Vector2(0, 0)
32:11/0/physics_layer_0/angular_velocity = 0.0
33:11/0 = 0
33:11/0/physics_layer_0/linear_velocity = Vector2(0, 0)
33:11/0/physics_layer_0/angular_velocity = 0.0
34:11/0 = 0
34:11/0/physics_layer_0/linear_velocity = Vector2(0, 0)
34:11/0/physics_layer_0/angular_velocity = 0.0
19:12/0 = 0
19:12/0/y_sort_origin = -16
19:12/0/terrain_set = 0
19:12/0/terrain = 1
19:12/0/physics_layer_0/linear_velocity = Vector2(0, 0)
19:12/0/physics_layer_0/angular_velocity = 0.0
19:12/0/terrains_peering_bit/right_side = 1
19:12/0/terrains_peering_bit/top_side = 1
19:12/0/terrains_peering_bit/top_right_corner = 1
20:12/0 = 0
20:12/0/y_sort_origin = -16
20:12/0/terrain_set = 0
20:12/0/terrain = 1
20:12/0/physics_layer_0/linear_velocity = Vector2(0, 0)
20:12/0/physics_layer_0/angular_velocity = 0.0
20:12/0/terrains_peering_bit/right_side = 1
20:12/0/terrains_peering_bit/left_side = 1
20:12/0/terrains_peering_bit/top_left_corner = 1
20:12/0/terrains_peering_bit/top_side = 1
20:12/0/terrains_peering_bit/top_right_corner = 1
21:12/0 = 0
21:12/0/y_sort_origin = -16
21:12/0/terrain_set = 0
21:12/0/terrain = 1
21:12/0/physics_layer_0/linear_velocity = Vector2(0, 0)
21:12/0/physics_layer_0/angular_velocity = 0.0
21:12/0/terrains_peering_bit/left_side = 1
21:12/0/terrains_peering_bit/top_left_corner = 1
21:12/0/terrains_peering_bit/top_side = 1
23:12/0 = 0
23:12/0/y_sort_origin = -16
23:12/0/terrain_set = 0
23:12/0/terrain = 1
23:12/0/physics_layer_0/linear_velocity = Vector2(0, 0)
23:12/0/physics_layer_0/angular_velocity = 0.0
23:12/0/terrains_peering_bit/right_side = 1
23:12/0/terrains_peering_bit/bottom_right_corner = 1
23:12/0/terrains_peering_bit/bottom_side = 1
23:12/0/terrains_peering_bit/bottom_left_corner = 1
23:12/0/terrains_peering_bit/left_side = 1
23:12/0/terrains_peering_bit/top_left_corner = 1
23:12/0/terrains_peering_bit/top_side = 1
23:12/0/terrains_peering_bit/top_right_corner = 1
24:12/0 = 0
24:12/0/y_sort_origin = -16
24:12/0/terrain_set = 0
24:12/0/terrain = 1
24:12/0/physics_layer_0/linear_velocity = Vector2(0, 0)
24:12/0/physics_layer_0/angular_velocity = 0.0
24:12/0/terrains_peering_bit/right_side = 1
24:12/0/terrains_peering_bit/bottom_right_corner = 1
24:12/0/terrains_peering_bit/bottom_side = 1
24:12/0/terrains_peering_bit/bottom_left_corner = 1
24:12/0/terrains_peering_bit/left_side = 1
24:12/0/terrains_peering_bit/top_left_corner = 1
24:12/0/terrains_peering_bit/top_side = 1
24:12/0/terrains_peering_bit/top_right_corner = 1
25:12/0 = 0
25:12/0/y_sort_origin = -16
25:12/0/terrain_set = 0
25:12/0/terrain = 1
25:12/0/physics_layer_0/linear_velocity = Vector2(0, 0)
25:12/0/physics_layer_0/angular_velocity = 0.0
25:12/0/terrains_peering_bit/right_side = 1
25:12/0/terrains_peering_bit/bottom_right_corner = 1
25:12/0/terrains_peering_bit/bottom_side = 1
25:12/0/terrains_peering_bit/bottom_left_corner = 1
25:12/0/terrains_peering_bit/left_side = 1
25:12/0/terrains_peering_bit/top_left_corner = 1
25:12/0/terrains_peering_bit/top_side = 1
25:12/0/terrains_peering_bit/top_right_corner = 1
26:12/0 = 0
26:12/0/y_sort_origin = -16
26:12/0/terrain_set = 0
26:12/0/terrain = 1
26:12/0/physics_layer_0/linear_velocity = Vector2(0, 0)
26:12/0/physics_layer_0/angular_velocity = 0.0
26:12/0/terrains_peering_bit/right_side = 1
26:12/0/terrains_peering_bit/bottom_right_corner = 1
26:12/0/terrains_peering_bit/bottom_side = 1
26:12/0/terrains_peering_bit/bottom_left_corner = 1
26:12/0/terrains_peering_bit/left_side = 1
26:12/0/terrains_peering_bit/top_left_corner = 1
26:12/0/terrains_peering_bit/top_side = 1
26:12/0/terrains_peering_bit/top_right_corner = 1
27:12/0 = 0
27:12/0/y_sort_origin = -16
27:12/0/terrain_set = 0
27:12/0/terrain = 1
27:12/0/physics_layer_0/linear_velocity = Vector2(0, 0)
27:12/0/physics_layer_0/angular_velocity = 0.0
27:12/0/terrains_peering_bit/right_side = 1
27:12/0/terrains_peering_bit/bottom_right_corner = 1
27:12/0/terrains_peering_bit/bottom_side = 1
27:12/0/terrains_peering_bit/bottom_left_corner = 1
27:12/0/terrains_peering_bit/left_side = 1
27:12/0/terrains_peering_bit/top_left_corner = 1
27:12/0/terrains_peering_bit/top_side = 1
27:12/0/terrains_peering_bit/top_right_corner = 1
23:13/0 = 0
23:13/0/y_sort_origin = -16
23:13/0/terrain_set = 0
23:13/0/terrain = 1
23:13/0/physics_layer_0/linear_velocity = Vector2(0, 0)
23:13/0/physics_layer_0/angular_velocity = 0.0
23:13/0/terrains_peering_bit/right_side = 1
23:13/0/terrains_peering_bit/bottom_right_corner = 1
23:13/0/terrains_peering_bit/bottom_side = 1
23:13/0/terrains_peering_bit/bottom_left_corner = 1
23:13/0/terrains_peering_bit/left_side = 1
23:13/0/terrains_peering_bit/top_left_corner = 1
23:13/0/terrains_peering_bit/top_side = 1
23:13/0/terrains_peering_bit/top_right_corner = 1
24:13/0 = 0
24:13/0/y_sort_origin = -16
24:13/0/terrain_set = 0
24:13/0/terrain = 1
24:13/0/physics_layer_0/linear_velocity = Vector2(0, 0)
24:13/0/physics_layer_0/angular_velocity = 0.0
24:13/0/terrains_peering_bit/right_side = 1
24:13/0/terrains_peering_bit/bottom_right_corner = 1
24:13/0/terrains_peering_bit/bottom_side = 1
24:13/0/terrains_peering_bit/bottom_left_corner = 1
24:13/0/terrains_peering_bit/left_side = 1
24:13/0/terrains_peering_bit/top_left_corner = 1
24:13/0/terrains_peering_bit/top_side = 1
24:13/0/terrains_peering_bit/top_right_corner = 1
25:13/0 = 0
25:13/0/y_sort_origin = -16
25:13/0/terrain_set = 0
25:13/0/terrain = 1
25:13/0/physics_layer_0/linear_velocity = Vector2(0, 0)
25:13/0/physics_layer_0/angular_velocity = 0.0
25:13/0/terrains_peering_bit/right_side = 1
25:13/0/terrains_peering_bit/bottom_right_corner = 1
25:13/0/terrains_peering_bit/bottom_side = 1
25:13/0/terrains_peering_bit/bottom_left_corner = 1
25:13/0/terrains_peering_bit/left_side = 1
25:13/0/terrains_peering_bit/top_left_corner = 1
25:13/0/terrains_peering_bit/top_side = 1
25:13/0/terrains_peering_bit/top_right_corner = 1
26:13/0 = 0
26:13/0/y_sort_origin = -16
26:13/0/terrain_set = 0
26:13/0/terrain = 1
26:13/0/physics_layer_0/linear_velocity = Vector2(0, 0)
26:13/0/physics_layer_0/angular_velocity = 0.0
26:13/0/terrains_peering_bit/right_side = 1
26:13/0/terrains_peering_bit/bottom_right_corner = 1
26:13/0/terrains_peering_bit/bottom_side = 1
26:13/0/terrains_peering_bit/bottom_left_corner = 1
26:13/0/terrains_peering_bit/left_side = 1
26:13/0/terrains_peering_bit/top_left_corner = 1
26:13/0/terrains_peering_bit/top_side = 1
26:13/0/terrains_peering_bit/top_right_corner = 1
27:13/0 = 0
27:13/0/y_sort_origin = -16
27:13/0/terrain_set = 0
27:13/0/terrain = 1
27:13/0/physics_layer_0/linear_velocity = Vector2(0, 0)
27:13/0/physics_layer_0/angular_velocity = 0.0
27:13/0/terrains_peering_bit/right_side = 1
27:13/0/terrains_peering_bit/bottom_right_corner = 1
27:13/0/terrains_peering_bit/bottom_side = 1
27:13/0/terrains_peering_bit/bottom_left_corner = 1
27:13/0/terrains_peering_bit/left_side = 1
27:13/0/terrains_peering_bit/top_left_corner = 1
27:13/0/terrains_peering_bit/top_side = 1
27:13/0/terrains_peering_bit/top_right_corner = 1

[sub_resource type="OccluderPolygon2D" id="OccluderPolygon2D_xbebb"]
polygon = PackedVector2Array(-73.5, -52.5, -3, -94.5, 72, -55.5, 70, -16, 53, -7, 55, 69, -0.5, 90.5, -50.5, 70, -72.5, -19)

[sub_resource type="OccluderPolygon2D" id="OccluderPolygon2D_fudvg"]
polygon = PackedVector2Array(-14, -30.5, 17, -28.5, 15, 38.5, -18, 38.5, -18.5, -16.5)

[sub_resource type="OccluderPolygon2D" id="OccluderPolygon2D_8ep6c"]
polygon = PackedVector2Array(-26.5, -21, 44.5, -3.5, 46, 16.5, 26, 27, -45, 11, -44, -8)

[sub_resource type="TileSetAtlasSource" id="TileSetAtlasSource_5tv4c"]
texture = ExtResource("2_rnkad")
texture_region_size = Vector2i(32, 32)
0:0/size_in_atlas = Vector2i(4, 6)
0:0/0 = 0
0:0/0/y_sort_origin = 70
0:0/0/physics_layer_0/linear_velocity = Vector2(0, 0)
0:0/0/physics_layer_0/angular_velocity = 0.0
4:0/size_in_atlas = Vector2i(4, 6)
4:0/0 = 0
4:0/0/y_sort_origin = 70
4:0/0/physics_layer_0/linear_velocity = Vector2(0, 0)
4:0/0/physics_layer_0/angular_velocity = 0.0
8:0/size_in_atlas = Vector2i(1, 2)
8:0/0 = 0
8:0/0/y_sort_origin = 24
8:0/0/physics_layer_0/linear_velocity = Vector2(0, 0)
8:0/0/physics_layer_0/angular_velocity = 0.0
9:0/size_in_atlas = Vector2i(1, 2)
9:0/0 = 0
9:0/0/y_sort_origin = 24
9:0/0/physics_layer_0/linear_velocity = Vector2(0, 0)
9:0/0/physics_layer_0/angular_velocity = 0.0
10:0/size_in_atlas = Vector2i(1, 2)
10:0/0 = 0
10:0/0/y_sort_origin = 24
10:0/0/physics_layer_0/linear_velocity = Vector2(0, 0)
10:0/0/physics_layer_0/angular_velocity = 0.0
8:2/size_in_atlas = Vector2i(2, 1)
8:2/0 = 0
8:2/0/y_sort_origin = 8
8:2/0/physics_layer_0/linear_velocity = Vector2(0, 0)
8:2/0/physics_layer_0/angular_velocity = 0.0
10:2/0 = 0
10:2/0/y_sort_origin = 8
10:2/0/physics_layer_0/linear_velocity = Vector2(0, 0)
10:2/0/physics_layer_0/angular_velocity = 0.0
11:2/0 = 0
11:2/0/y_sort_origin = 8
11:2/0/physics_layer_0/linear_velocity = Vector2(0, 0)
11:2/0/physics_layer_0/angular_velocity = 0.0
8:3/size_in_atlas = Vector2i(2, 3)
8:3/0 = 0
8:3/0/y_sort_origin = 24
8:3/0/physics_layer_0/linear_velocity = Vector2(0, 0)
8:3/0/physics_layer_0/angular_velocity = 0.0
10:4/size_in_atlas = Vector2i(2, 2)
10:4/0 = 0
10:4/0/y_sort_origin = 8
10:4/0/physics_layer_0/linear_velocity = Vector2(0, 0)
10:4/0/physics_layer_0/angular_velocity = 0.0
12:4/size_in_atlas = Vector2i(2, 2)
12:4/0 = 0
12:4/0/y_sort_origin = 8
12:4/0/physics_layer_0/linear_velocity = Vector2(0, 0)
12:4/0/physics_layer_0/angular_velocity = 0.0
11:6/size_in_atlas = Vector2i(5, 6)
11:6/0 = 0
11:6/0/y_sort_origin = 60
11:6/0/occlusion_layer_0/polygon = SubResource("OccluderPolygon2D_xbebb")
11:6/0/physics_layer_0/linear_velocity = Vector2(0, 0)
11:6/0/physics_layer_0/angular_velocity = 0.0
8:7/size_in_atlas = Vector2i(3, 2)
8:7/0 = 0
8:7/0/y_sort_origin = 20
8:7/0/occlusion_layer_0/polygon = SubResource("OccluderPolygon2D_8ep6c")
8:7/0/physics_layer_0/linear_velocity = Vector2(0, 0)
8:7/0/physics_layer_0/angular_velocity = 0.0
6:6/size_in_atlas = Vector2i(2, 3)
6:6/0 = 0
6:6/0/y_sort_origin = 30
6:6/0/occlusion_layer_0/polygon = SubResource("OccluderPolygon2D_fudvg")
6:6/0/physics_layer_0/linear_velocity = Vector2(0, 0)
6:6/0/physics_layer_0/angular_velocity = 0.0
4:6/size_in_atlas = Vector2i(2, 1)
4:6/0 = 0
4:6/0/y_sort_origin = -8
4:6/0/physics_layer_0/linear_velocity = Vector2(0, 0)
4:6/0/physics_layer_0/angular_velocity = 0.0
4:7/size_in_atlas = Vector2i(2, 1)
4:7/0 = 0
4:7/0/y_sort_origin = -8
4:7/0/physics_layer_0/linear_velocity = Vector2(0, 0)
4:7/0/physics_layer_0/angular_velocity = 0.0
4:8/size_in_atlas = Vector2i(2, 1)
4:8/0 = 0
4:8/0/y_sort_origin = -8
4:8/0/physics_layer_0/linear_velocity = Vector2(0, 0)
4:8/0/physics_layer_0/angular_velocity = 0.0
1:6/0 = 0
1:6/0/y_sort_origin = -16
1:6/0/physics_layer_0/linear_velocity = Vector2(0, 0)
1:6/0/physics_layer_0/angular_velocity = 0.0
2:6/0 = 0
2:6/0/y_sort_origin = -16
2:6/0/physics_layer_0/linear_velocity = Vector2(0, 0)
2:6/0/physics_layer_0/angular_velocity = 0.0
3:6/0 = 0
3:6/0/y_sort_origin = -16
3:6/0/physics_layer_0/linear_velocity = Vector2(0, 0)
3:6/0/physics_layer_0/angular_velocity = 0.0
3:7/0 = 0
3:7/0/y_sort_origin = -16
3:7/0/physics_layer_0/linear_velocity = Vector2(0, 0)
3:7/0/physics_layer_0/angular_velocity = 0.0
2:7/0 = 0
2:7/0/y_sort_origin = -16
2:7/0/physics_layer_0/linear_velocity = Vector2(0, 0)
2:7/0/physics_layer_0/angular_velocity = 0.0
1:7/0 = 0
1:7/0/y_sort_origin = -16
1:7/0/physics_layer_0/linear_velocity = Vector2(0, 0)
1:7/0/physics_layer_0/angular_velocity = 0.0
1:8/0 = 0
1:8/0/y_sort_origin = -16
1:8/0/physics_layer_0/linear_velocity = Vector2(0, 0)
1:8/0/physics_layer_0/angular_velocity = 0.0
2:8/0 = 0
2:8/0/y_sort_origin = -16
2:8/0/physics_layer_0/linear_velocity = Vector2(0, 0)
2:8/0/physics_layer_0/angular_velocity = 0.0
3:8/0 = 0
3:8/0/y_sort_origin = -16
3:8/0/physics_layer_0/linear_velocity = Vector2(0, 0)
3:8/0/physics_layer_0/angular_velocity = 0.0
2:9/size_in_atlas = Vector2i(5, 4)
2:9/0 = 0
2:9/0/y_sort_origin = 54
2:9/0/physics_layer_0/linear_velocity = Vector2(0, 0)
2:9/0/physics_layer_0/angular_velocity = 0.0
0:9/size_in_atlas = Vector2i(2, 2)
0:9/0 = 0
0:9/0/physics_layer_0/linear_velocity = Vector2(0, 0)
0:9/0/physics_layer_0/angular_velocity = 0.0

[resource]
tile_size = Vector2i(32, 32)
occlusion_layer_0/light_mask = 1
physics_layer_0/collision_layer = 1
terrain_set_0/mode = 0
terrain_set_0/terrain_0/name = "Light Grass"
terrain_set_0/terrain_0/color = Color(0.286275, 0.141176, 1, 1)
terrain_set_0/terrain_1/name = "Stone Grass"
terrain_set_0/terrain_1/color = Color(0.831373, 0, 0.0745098, 1)
terrain_set_0/terrain_2/name = "Grass Walls"
terrain_set_0/terrain_2/color = Color(0.901961, 0, 0.713726, 1)
sources/0 = SubResource("TileSetAtlasSource_y1fku")
sources/1 = SubResource("TileSetAtlasSource_5tv4c")
